---
http_interactions:
- request:
    method: get
    uri: http://localhost:4000/store/api/countries?per_page=30
    body:
      encoding: US-ASCII
      string: ''
    headers:
      Accept:
      - application/json
      X-Spree-Token:
      - b56019f04b61a50553ee323f5ab68c6b435871971e79c987
      Accept-Encoding:
      - gzip;q=1.0,deflate;q=0.6,identity;q=0.3
      User-Agent:
      - Ruby
  response:
    status:
      code: 200
      message: ! 'OK '
    headers:
      Content-Type:
      - application/json
      X-Ua-Compatible:
      - IE=Edge
      Etag:
      - ! '"157e9a5f06578de5bad37b4d0ef422f9"'
      Cache-Control:
      - max-age=0, private, must-revalidate
      X-Request-Id:
      - 3db1d4471e09b5a26a76f61796d7a0ce
      X-Runtime:
      - '0.238102'
      Content-Length:
      - '3065'
      Server:
      - WEBrick/1.3.1 (Ruby/1.9.3/2012-02-16)
      Date:
      - Fri, 07 Dec 2012 17:37:14 GMT
      Connection:
      - Keep-Alive
    body:
      encoding: US-ASCII
      string: ! '{"count":30,"current_page":1,"pages":8,"countries":[{"country":{"id":1,"iso_name":"AFGHANISTAN","iso":"AF","iso3":"AFG","name":"Afghanistan","numcode":4}},{"country":{"id":2,"iso_name":"ALBANIA","iso":"AL","iso3":"ALB","name":"Albania","numcode":8}},{"country":{"id":3,"iso_name":"ALGERIA","iso":"DZ","iso3":"DZA","name":"Algeria","numcode":12}},{"country":{"id":4,"iso_name":"AMERICAN
        SAMOA","iso":"AS","iso3":"ASM","name":"American Samoa","numcode":16}},{"country":{"id":5,"iso_name":"ANDORRA","iso":"AD","iso3":"AND","name":"Andorra","numcode":20}},{"country":{"id":6,"iso_name":"ANGOLA","iso":"AO","iso3":"AGO","name":"Angola","numcode":24}},{"country":{"id":7,"iso_name":"ANGUILLA","iso":"AI","iso3":"AIA","name":"Anguilla","numcode":660}},{"country":{"id":8,"iso_name":"ANTIGUA
        AND BARBUDA","iso":"AG","iso3":"ATG","name":"Antigua and Barbuda","numcode":28}},{"country":{"id":9,"iso_name":"ARGENTINA","iso":"AR","iso3":"ARG","name":"Argentina","numcode":32}},{"country":{"id":10,"iso_name":"ARMENIA","iso":"AM","iso3":"ARM","name":"Armenia","numcode":51}},{"country":{"id":11,"iso_name":"ARUBA","iso":"AW","iso3":"ABW","name":"Aruba","numcode":533}},{"country":{"id":12,"iso_name":"AUSTRALIA","iso":"AU","iso3":"AUS","name":"Australia","numcode":36}},{"country":{"id":13,"iso_name":"AUSTRIA","iso":"AT","iso3":"AUT","name":"Austria","numcode":40}},{"country":{"id":14,"iso_name":"AZERBAIJAN","iso":"AZ","iso3":"AZE","name":"Azerbaijan","numcode":31}},{"country":{"id":15,"iso_name":"BAHAMAS","iso":"BS","iso3":"BHS","name":"Bahamas","numcode":44}},{"country":{"id":16,"iso_name":"BAHRAIN","iso":"BH","iso3":"BHR","name":"Bahrain","numcode":48}},{"country":{"id":17,"iso_name":"BANGLADESH","iso":"BD","iso3":"BGD","name":"Bangladesh","numcode":50}},{"country":{"id":18,"iso_name":"BARBADOS","iso":"BB","iso3":"BRB","name":"Barbados","numcode":52}},{"country":{"id":19,"iso_name":"BELARUS","iso":"BY","iso3":"BLR","name":"Belarus","numcode":112}},{"country":{"id":20,"iso_name":"BELGIUM","iso":"BE","iso3":"BEL","name":"Belgium","numcode":56}},{"country":{"id":21,"iso_name":"BELIZE","iso":"BZ","iso3":"BLZ","name":"Belize","numcode":84}},{"country":{"id":22,"iso_name":"BENIN","iso":"BJ","iso3":"BEN","name":"Benin","numcode":204}},{"country":{"id":23,"iso_name":"BERMUDA","iso":"BM","iso3":"BMU","name":"Bermuda","numcode":60}},{"country":{"id":24,"iso_name":"BHUTAN","iso":"BT","iso3":"BTN","name":"Bhutan","numcode":64}},{"country":{"id":25,"iso_name":"BOLIVIA","iso":"BO","iso3":"BOL","name":"Bolivia","numcode":68}},{"country":{"id":26,"iso_name":"BOSNIA
        AND HERZEGOVINA","iso":"BA","iso3":"BIH","name":"Bosnia and Herzegovina","numcode":70}},{"country":{"id":27,"iso_name":"BOTSWANA","iso":"BW","iso3":"BWA","name":"Botswana","numcode":72}},{"country":{"id":28,"iso_name":"BRAZIL","iso":"BR","iso3":"BRA","name":"Brazil","numcode":76}},{"country":{"id":29,"iso_name":"BRUNEI
        DARUSSALAM","iso":"BN","iso3":"BRN","name":"Brunei Darussalam","numcode":96}},{"country":{"id":30,"iso_name":"BULGARIA","iso":"BG","iso3":"BGR","name":"Bulgaria","numcode":100}}]}'
    http_version: 
  recorded_at: Fri, 07 Dec 2012 17:37:14 GMT
recorded_with: VCR 2.3.0
