---
http_interactions:
- request:
    method: get
    uri: http://localhost:4000/store/api/orders?per_page=30
    body:
      encoding: US-ASCII
      string: ''
    headers:
      Accept:
      - application/json
      X-Spree-Token:
      - b56019f04b61a50553ee323f5ab68c6b435871971e79c987
      Accept-Encoding:
      - gzip;q=1.0,deflate;q=0.6,identity;q=0.3
      User-Agent:
      - Ruby
  response:
    status:
      code: 200
      message: ! 'OK '
    headers:
      Content-Type:
      - application/json
      X-Ua-Compatible:
      - IE=Edge
      Etag:
      - ! '"e24ee6f753bf2db91e4fe11a1ab671f6"'
      Cache-Control:
      - max-age=0, private, must-revalidate
      X-Request-Id:
      - 1141ccfa203a7200135dea9fad5cec68
      X-Runtime:
      - '0.179288'
      Content-Length:
      - '10424'
      Server:
      - WEBrick/1.3.1 (Ruby/1.9.3/2012-02-16)
      Date:
      - Fri, 07 Dec 2012 17:37:14 GMT
      Connection:
      - Keep-Alive
    body:
      encoding: US-ASCII
      string: ! '{"count":30,"current_page":1,"pages":3,"orders":[{"order":{"id":1,"number":"R610162112","item_total":"0.0","total":"0.0","state":"cart","adjustment_total":"0.0","user_id":null,"created_at":"2012-10-29T13:39:54Z","updated_at":"2012-10-29T13:39:54Z","completed_at":null,"payment_total":"0.0","shipment_state":null,"payment_state":null,"email":null,"special_instructions":null}},{"order":{"id":2,"number":"R518184886","item_total":"15.99","total":"15.99","state":"complete","adjustment_total":"0.0","user_id":1,"created_at":"2012-10-29T15:54:34Z","updated_at":"2012-11-01T16:07:09Z","completed_at":"2012-11-01T16:07:09Z","payment_total":"15.99","shipment_state":"shipped","payment_state":"paid","email":"andrew@forward.co.uk","special_instructions":null}},{"order":{"id":3,"number":"R288620137","item_total":"19.99","total":"19.99","state":"cart","adjustment_total":"0.0","user_id":null,"created_at":"2012-10-30T17:18:26Z","updated_at":"2012-10-30T17:18:26Z","completed_at":null,"payment_total":"0.0","shipment_state":null,"payment_state":"balance_due","email":null,"special_instructions":null}},{"order":{"id":4,"number":"R538628271","item_total":"114.95","total":"114.95","state":"address","adjustment_total":"0.0","user_id":null,"created_at":"2012-10-31T09:31:54Z","updated_at":"2012-10-31T09:33:18Z","completed_at":null,"payment_total":"0.0","shipment_state":null,"payment_state":"balance_due","email":"yourmum@wizzo.com","special_instructions":null}},{"order":{"id":5,"number":"R823028447","item_total":"19.0","total":"19.0","state":"address","adjustment_total":"0.0","user_id":null,"created_at":"2012-10-31T16:44:21Z","updated_at":"2012-10-31T16:45:05Z","completed_at":null,"payment_total":"0.0","shipment_state":null,"payment_state":"balance_due","email":"thattommyhall@gmail.com","special_instructions":null}},{"order":{"id":6,"number":"R747815324","item_total":"19.99","total":"19.99","state":"cart","adjustment_total":"0.0","user_id":null,"created_at":"2012-10-31T19:04:55Z","updated_at":"2012-10-31T19:04:55Z","completed_at":null,"payment_total":"0.0","shipment_state":null,"payment_state":"balance_due","email":null,"special_instructions":null}},{"order":{"id":7,"number":"R380766278","item_total":"47.97","total":"47.97","state":"cart","adjustment_total":"0.0","user_id":null,"created_at":"2012-11-01T10:45:02Z","updated_at":"2012-11-01T10:45:02Z","completed_at":null,"payment_total":"0.0","shipment_state":null,"payment_state":"balance_due","email":null,"special_instructions":null}},{"order":{"id":8,"number":"R162570238","item_total":"15.99","total":"15.99","state":"cart","adjustment_total":"0.0","user_id":null,"created_at":"2012-11-01T11:09:37Z","updated_at":"2012-11-01T11:09:37Z","completed_at":null,"payment_total":"0.0","shipment_state":null,"payment_state":"balance_due","email":null,"special_instructions":null}},{"order":{"id":9,"number":"R263145266","item_total":"19.99","total":"19.99","state":"cart","adjustment_total":"0.0","user_id":null,"created_at":"2012-11-01T11:36:16Z","updated_at":"2012-11-01T11:36:16Z","completed_at":null,"payment_total":"0.0","shipment_state":null,"payment_state":"balance_due","email":null,"special_instructions":null}},{"order":{"id":10,"number":"R618778860","item_total":"19.99","total":"19.99","state":"cart","adjustment_total":"0.0","user_id":null,"created_at":"2012-11-01T13:25:12Z","updated_at":"2012-11-01T13:25:12Z","completed_at":null,"payment_total":"0.0","shipment_state":null,"payment_state":"balance_due","email":null,"special_instructions":null}},{"order":{"id":11,"number":"R432674713","item_total":"15.99","total":"15.99","state":"cart","adjustment_total":"0.0","user_id":null,"created_at":"2012-11-01T13:27:57Z","updated_at":"2012-11-01T13:27:57Z","completed_at":null,"payment_total":"0.0","shipment_state":null,"payment_state":"balance_due","email":null,"special_instructions":null}},{"order":{"id":12,"number":"R303046005","item_total":"63.96","total":"63.96","state":"payment","adjustment_total":"0.0","user_id":1,"created_at":"2012-11-01T16:15:19Z","updated_at":"2012-11-02T22:30:47Z","completed_at":null,"payment_total":"0.0","shipment_state":"pending","payment_state":"balance_due","email":"andrew@forward.co.uk","special_instructions":null}},{"order":{"id":13,"number":"R614350641","item_total":"15.99","total":"15.99","state":"cart","adjustment_total":"0.0","user_id":null,"created_at":"2012-11-01T16:40:41Z","updated_at":"2012-11-01T16:40:41Z","completed_at":null,"payment_total":"0.0","shipment_state":null,"payment_state":"balance_due","email":null,"special_instructions":null}},{"order":{"id":14,"number":"R031831150","item_total":"15.99","total":"15.99","state":"cart","adjustment_total":"0.0","user_id":null,"created_at":"2012-11-02T10:42:37Z","updated_at":"2012-11-02T10:42:37Z","completed_at":null,"payment_total":"0.0","shipment_state":null,"payment_state":"balance_due","email":null,"special_instructions":null}},{"order":{"id":15,"number":"R124618128","item_total":"47.97","total":"47.97","state":"cart","adjustment_total":"0.0","user_id":null,"created_at":"2012-11-02T11:53:38Z","updated_at":"2012-11-02T11:53:38Z","completed_at":null,"payment_total":"0.0","shipment_state":null,"payment_state":"balance_due","email":null,"special_instructions":null}},{"order":{"id":16,"number":"R356568420","item_total":"31.98","total":"31.98","state":"payment","adjustment_total":"0.0","user_id":null,"created_at":"2012-11-02T11:54:08Z","updated_at":"2012-11-02T14:39:26Z","completed_at":null,"payment_total":"0.0","shipment_state":"pending","payment_state":"balance_due","email":"andrewnez@gmail.com","special_instructions":null}},{"order":{"id":17,"number":"R876563861","item_total":"15.99","total":"15.99","state":"complete","adjustment_total":"0.0","user_id":null,"created_at":"2012-11-02T12:59:16Z","updated_at":"2012-11-02T13:09:35Z","completed_at":"2012-11-02T13:09:35Z","payment_total":"15.99","shipment_state":"shipped","payment_state":"paid","email":"Carlgaywood@mac.com","special_instructions":null}},{"order":{"id":18,"number":"R626178802","item_total":"15.99","total":"15.99","state":"cart","adjustment_total":"0.0","user_id":null,"created_at":"2012-11-02T13:18:40Z","updated_at":"2012-11-02T13:18:40Z","completed_at":null,"payment_total":"0.0","shipment_state":null,"payment_state":"balance_due","email":null,"special_instructions":null}},{"order":{"id":19,"number":"R478884721","item_total":"15.99","total":"15.99","state":"cart","adjustment_total":"0.0","user_id":null,"created_at":"2012-11-02T13:37:30Z","updated_at":"2012-11-02T13:37:30Z","completed_at":null,"payment_total":"0.0","shipment_state":null,"payment_state":"balance_due","email":null,"special_instructions":null}},{"order":{"id":20,"number":"R044125263","item_total":"15.99","total":"15.99","state":"cart","adjustment_total":"0.0","user_id":null,"created_at":"2012-11-02T13:49:56Z","updated_at":"2012-11-02T13:49:56Z","completed_at":null,"payment_total":"0.0","shipment_state":null,"payment_state":"balance_due","email":null,"special_instructions":null}},{"order":{"id":21,"number":"R067846337","item_total":"15.99","total":"15.99","state":"cart","adjustment_total":"0.0","user_id":null,"created_at":"2012-11-02T14:04:21Z","updated_at":"2012-11-02T14:04:21Z","completed_at":null,"payment_total":"0.0","shipment_state":null,"payment_state":"balance_due","email":null,"special_instructions":null}},{"order":{"id":22,"number":"R530034387","item_total":"15.99","total":"15.99","state":"cart","adjustment_total":"0.0","user_id":null,"created_at":"2012-11-02T14:06:43Z","updated_at":"2012-11-02T14:06:43Z","completed_at":null,"payment_total":"0.0","shipment_state":null,"payment_state":"balance_due","email":null,"special_instructions":null}},{"order":{"id":23,"number":"R522108274","item_total":"15.99","total":"15.99","state":"cart","adjustment_total":"0.0","user_id":null,"created_at":"2012-11-02T14:17:35Z","updated_at":"2012-11-02T14:17:35Z","completed_at":null,"payment_total":"0.0","shipment_state":null,"payment_state":"balance_due","email":null,"special_instructions":null}},{"order":{"id":24,"number":"R412640660","item_total":"15.99","total":"15.99","state":"cart","adjustment_total":"0.0","user_id":null,"created_at":"2012-11-02T14:33:49Z","updated_at":"2012-11-02T14:33:49Z","completed_at":null,"payment_total":"0.0","shipment_state":null,"payment_state":"balance_due","email":null,"special_instructions":null}},{"order":{"id":25,"number":"R673415015","item_total":"15.99","total":"15.99","state":"cart","adjustment_total":"0.0","user_id":null,"created_at":"2012-11-02T15:24:26Z","updated_at":"2012-11-02T15:24:26Z","completed_at":null,"payment_total":"0.0","shipment_state":null,"payment_state":"balance_due","email":null,"special_instructions":null}},{"order":{"id":26,"number":"R432164542","item_total":"15.99","total":"15.99","state":"cart","adjustment_total":"0.0","user_id":null,"created_at":"2012-11-02T15:35:16Z","updated_at":"2012-11-02T15:35:16Z","completed_at":null,"payment_total":"0.0","shipment_state":null,"payment_state":"balance_due","email":null,"special_instructions":null}},{"order":{"id":27,"number":"R541785213","item_total":"15.99","total":"15.99","state":"cart","adjustment_total":"0.0","user_id":null,"created_at":"2012-11-02T15:39:07Z","updated_at":"2012-11-02T15:39:07Z","completed_at":null,"payment_total":"0.0","shipment_state":null,"payment_state":"balance_due","email":null,"special_instructions":null}},{"order":{"id":28,"number":"R668010772","item_total":"15.99","total":"15.99","state":"cart","adjustment_total":"0.0","user_id":null,"created_at":"2012-11-02T15:58:50Z","updated_at":"2012-11-02T15:58:50Z","completed_at":null,"payment_total":"0.0","shipment_state":null,"payment_state":"balance_due","email":null,"special_instructions":null}},{"order":{"id":29,"number":"R122000223","item_total":"15.99","total":"15.99","state":"cart","adjustment_total":"0.0","user_id":null,"created_at":"2012-11-02T16:14:23Z","updated_at":"2012-11-02T16:14:23Z","completed_at":null,"payment_total":"0.0","shipment_state":null,"payment_state":"balance_due","email":null,"special_instructions":null}},{"order":{"id":30,"number":"R387428743","item_total":"15.99","total":"15.99","state":"cart","adjustment_total":"0.0","user_id":null,"created_at":"2012-11-02T21:00:05Z","updated_at":"2012-11-02T21:00:05Z","completed_at":null,"payment_total":"0.0","shipment_state":null,"payment_state":"balance_due","email":null,"special_instructions":null}}]}'
    http_version: 
  recorded_at: Fri, 07 Dec 2012 17:37:14 GMT
recorded_with: VCR 2.3.0
